{
    "logger": "dev",
    "oauth": {
        "google": {
            "clientId": "",
            "secretKey": ""
        }
    },
    "static": "client/build",
    "jwtSecret": "",
    "mongo": {
        "url": "mongodb://user:password@host:port/dbname"
    }
}